Artist albums : 
{"href":"https://api.spotify.com/v1/artists/43ZHCT0cAZBISjO8DG9PnE/albums?offset=0&limit=20&include_groups=album,single,compilation,appears_on",
    "items":[
            {"album_group":"album",
            "album_type":"album",
            "artists":
                [
                    {"external_urls":{
                        "spotify":"https://open.spotify.com/artist/43ZHCT0cAZBISjO8DG9PnE"},
                    "href":"https://api.spotify.com/v1/artists/43ZHCT0cAZBISjO8DG9PnE","id":"43ZHCT0cAZBISjO8DG9PnE",
                    "name":"Elvis Presley",
                    "type":"artist",
                    "uri":"spotify:artist:43ZHCT0cAZBISjO8DG9PnE"
                    }
                ],
            "available_markets":["AD","AE","AL","AR","AT","AU","BA","BE","BG","BH","BO","BR","BY","CA","CH","CL","CO","CR","CY","CZ","DE","DK","DO","DZ","EC","EE","EG","ES","FI","FR","GB","GR","GT","HK","HN","HR","HU","ID","IE","IL","IN","IS","IT","JO","JP","KW","KZ","LB","LI","LT","LU","LV","MA","MC","MD","ME","MK","MT","MX","MY","NI","NL","NO","NZ","OM","PA","PE","PH","PL","PS","PT","PY","QA","RO","RS","RU","SA","SE","SG","SI","SK","SV","TH","TN","TR","TW","UA","US","UY","VN","XK","ZA"],
            
            "external_urls":{"spotify":"https://open.spotify.com/album/0yEncYwOwElJLXivj2R0mP"},
            "href":"https://api.spotify.com/v1/albums/0yEncYwOwElJLXivj2R0mP",
    "id":"0yEncYwOwElJLXivj2R0mP",
    "images":[
                {"height":640,
                "url":"https://i.scdn.co/image/ab67616d0000b2732379330cc9d3133cea047e41",
                "width":640},
                {"height":300,
                "url":"https://i.scdn.co/image/ab67616d00001e022379330cc9d3133cea047e41",
                "width":300},
                {"height":64,
                "url":"https://i.scdn.co/image/ab67616d000048512379330cc9d3133cea047e41",
                "width":64}
                ],
    "name":"From Elvis In Nashville",
            "release_date":"2020-11-20",
            "release_date_precision":"day",
            "total_tracks":74,
            "type":"album",
            "uri":"spotify:album:0yEncYwOwElJLXivj2R0mP"
        },
            
        {"album_group":"album","album_type":"compilation","artists":[{"external_urls":{"spotify":"https://open.spotify.com/artist/43ZHCT0cAZBISjO8DG9PnE"},"href":"https://api.spotify.com/v1/artists/43ZHCT0cAZBISjO8DG9PnE","id":"43ZHCT0cAZBISjO8DG9PnE","name":"Elvis Presley","type":"artist","uri":"spotify:artist:43ZHCT0cAZBISjO8DG9PnE"}],"available_markets":["AD","AE","AL","AR","AT","AU","BA","BE","BG","BH","BO","BR","BY","CH","CL","CO","CR","CY","CZ","DE","DK","DO","DZ","EC","EE","EG","ES","FI","FR","GB","GR","GT","HK","HN","HR","HU","ID","IE","IL","IN","IS","IT","JO","JP","KW","KZ","LB","LI","LT","LU","LV","MA","MC","MD","ME","MK","MT","MX","MY","NI","NL","NO","NZ","OM","PA","PE","PH","PL","PS","PT","PY","QA","RO","RS","RU","SA","SE","SG","SI","SK","SV","TH","TN","TR","TW","UA","UY","VN","XK","ZA"],"external_urls":{"spotify":"https://open.spotify.com/album/2ImFAbw5eJ2ivFALwgpYYJ"},"href":"https://api.spotify.com/v1/albums/2ImFAbw5eJ2ivFALwgpYYJ","id":"2ImFAbw5eJ2ivFALwgpYYJ","images":[{"height":640,"url":"https://i.scdn.co/image/ab67616d0000b2734be856bda37fe08c6ace773f","width":640},{"height":300,"url":"https://i.scdn.co/image/ab67616d00001e024be856bda37fe08c6ace773f","width":300},{"height":64,"url":"https://i.scdn.co/image/ab67616d000048514be856bda37fe08c6ace773f","width":64}],"name":"Christmas with Elvis","release_date":"2020-10-29","release_date_precision":"day","total_tracks":22,"type":"album","uri":"spotify:album:2ImFAbw5eJ2ivFALwgpYYJ"},{"album_group":"album","album_type":"album","artists":[{"external_urls":{"spotify":"https://open.spotify.com/artist/43ZHCT0cAZBISjO8DG9PnE"},"href":"https://api.spotify.com/v1/artists/43ZHCT0cAZBISjO8DG9PnE","id":"43ZHCT0cAZBISjO8DG9PnE","name":"Elvis Presley","type":"artist","uri":"spotify:artist:43ZHCT0cAZBISjO8DG9PnE"}],"available_markets":["AD","AE","AL","AR","AT","AU","BA","BE","BG","BH","BO","BR","BY","CA","CH","CL","CO","CR","CY","CZ","DE","DK","DO","DZ","EC","EE","EG","ES","FI","FR","GB","GR","GT","HK","HN","HR","HU","ID","IE","IL","IN","IS","IT","JO","KW","KZ","LB","LI","LT","LU","LV","MA","MC","MD","ME","MK","MT","MX","MY","NI","NL","NO","NZ","OM","PA","PE","PH","PL","PS","PT","PY","QA","RO","RS","RU","SA","SE","SG","SI","SK","SV","TH","TN","TR","TW","UA","UY","VN","XK","ZA"],"external_urls":{"spotify":"https://open.spotify.com/album/78VH0qh6QI83lJ9uucLzXC"},"href":"https://api.spotify.com/v1/albums/78VH0qh6QI83lJ9uucLzXC","id":"78VH0qh6QI83lJ9uucLzXC","images":[{"height":640,"url":"https://i.scdn.co/image/ab67616d0000b27323eac3db75fb829340567f80","width":640},{"height":300,"url":"https://i.scdn.co/image/ab67616d00001e0223eac3db75fb829340567f80","width":300},{"height":64,"url":"https://i.scdn.co/image/ab67616d0000485123eac3db75fb829340567f80","width":64}],"name":"Elvis His First Christmas Album Now in Stereo (New Mono to Stereo Mixes)","release_date":"2020-10-01","release_date_precision":"day","total_tracks":20,"type":"album","uri":"spotify:album:78VH0qh6QI83lJ9uucLzXC"},
            
            {"album_group":"album","album_type":"album","artists":[{"external_urls":{"spotify":"https://open.spotify.com/artist/43ZHCT0cAZBISjO8DG9PnE"},"href":"https://api.spotify.com/v1/artists/43ZHCT0cAZBISjO8DG9PnE","id":"43ZHCT0cAZBISjO8DG9PnE","name":"Elvis Presley","type":"artist","uri":"spotify:artist:43ZHCT0cAZBISjO8DG9PnE"}],"available_markets":["AD","AE","AL","AT","BA","BE","BG","BH","BO","BY","CH","CY","CZ","DE","DK","DO","DZ","EE","EG","ES","FI","FR","GB","GR","HK","HR","HU","ID","IE","IS","IT","JO","JP","KW","KZ","LB","LI","LT","LU","LV","MA","MC","MD","ME","MK","MT","MY","NL","NO","NZ","OM","PA","PH","PL","PS","PT","QA","RO","RS","RU","SA","SE","SG","SI","SK","SV","TH","TN","TW","UA","UY","VN","XK","ZA"],"external_urls":{"spotify":"https://open.spotify.com/album/4i3T4LNMCfU3Y2MeX1h111"},"href":"https://api.spotify.com/v1/albums/4i3T4LNMCfU3Y2MeX1h111","id":"4i3T4LNMCfU3Y2MeX1h111","images":[{"height":640,"url":"https://i.scdn.co/image/ab67616d0000b273ee5ad777698d63bfc59e3ff3","width":640},{"height":300,"url":"https://i.scdn.co/image/ab67616d00001e02ee5ad777698d63bfc59e3ff3","width":300},{"height":64,"url":"https://i.scdn.co/image/ab67616d00004851ee5ad777698d63bfc59e3ff3","width":64}],"name":"Music Around the World by Elvis Presley, Vol. 2","release_date":"2020-09-11","release_date_precision":"day","total_tracks":50,"type":"album","uri":"spotify:album:4i3T4LNMCfU3Y2MeX1h111"},{"album_group":"album","album_type":"album","artists":[{"external_urls":{"spotify":"https://open.spotify.com/artist/43ZHCT0cAZBISjO8DG9PnE"},"href":"https://api.spotify.com/v1/artists/43ZHCT0cAZBISjO8DG9PnE","id":"43ZHCT0cAZBISjO8DG9PnE","name":"Elvis Presley","type":"artist","uri":"spotify:artist:43ZHCT0cAZBISjO8DG9PnE"}],"available_markets":["AD","AE","AL","AT","BA","BE","BG","BH","BO","BY","CA","CH","CO","CY","CZ","DE","DK","DO","DZ","EE","EG","ES","FI","FR","GB","GR","HK","HR","HU","ID","IE","IS","IT","JO","JP","KW","KZ","LB","LI","LT","LU","LV","MA","MC","MD","ME","MK","MT","MY","NL","NO","NZ","OM","PA","PH","PL","PS","PT","QA","RO","RS","RU","SA","SE","SG","SI","SK","SV","TH","TN","TW","UA","UY","VN","XK","ZA"],"external_urls":{"spotify":"https://open.spotify.com/album/0i0i20vbhHN3S2SNnM1ChV"},"href":"https://api.spotify.com/v1/albums/0i0i20vbhHN3S2SNnM1ChV","id":"0i0i20vbhHN3S2SNnM1ChV","images":[{"height":640,"url":"https://i.scdn.co/image/ab67616d0000b2738ae6cc9fcbd19f6fbc142ad7","width":640},{"height":300,"url":"https://i.scdn.co/image/ab67616d00001e028ae6cc9fcbd19f6fbc142ad7","width":300},{"height":64,"url":"https://i.scdn.co/image/ab67616d000048518ae6cc9fcbd19f6fbc142ad7","width":64}],"name":"Music Around the World by Elvis Presley, Vol. 1","release_date":"2020-09-04","release_date_precision":"day","total_tracks":50,"type":"album","uri":"spotify:album:0i0i20vbhHN3S2SNnM1ChV"},{"album_group":"album","album_type":"album","artists":[{"external_urls":{"spotify":"https://open.spotify.com/artist/43ZHCT0cAZBISjO8DG9PnE"},"href":"https://api.spotify.com/v1/artists/43ZHCT0cAZBISjO8DG9PnE","id":"43ZHCT0cAZBISjO8DG9PnE","name":"Elvis Presley","type":"artist","uri":"spotify:artist:43ZHCT0cAZBISjO8DG9PnE"}],"available_markets":["AD","AE","AL","AR","AT","AU","BA","BE","BG","BH","BO","BR","BY","CA","CH","CL","CO","CR","CY","CZ","DE","DK","DO","DZ","EC","EE","EG","ES","FI","FR","GB","GR","GT","HK","HN","HR","HU","ID","IE","IL","IN","IS","IT","JO","JP","KW","KZ","LB","LI","LT","LU","LV","MA","MC","MD","ME","MK","MT","MX","MY","NI","NL","NO","NZ","OM","PA","PE","PH","PL","PS","PT","PY","QA","RO","RS","RU","SA","SE","SG","SI","SK","SV","TH","TN","TR","TW","UA","US","UY","VN","XK","ZA"],"external_urls":{"spotify":"https://open.spotify.com/album/45su93rMPo8auQWHK3JaqF"},"href":"https://api.spotify.com/v1/albums/45su93rMPo8auQWHK3JaqF","id":"45su93rMPo8auQWHK3JaqF","images":[{"height":640,"url":"https://i.scdn.co/image/ab67616d0000b273ed6f9c3010458116dcefbce7","width":640},{"height":300,"url":"https://i.scdn.co/image/ab67616d00001e02ed6f9c3010458116dcefbce7","width":300},{"height":64,"url":"https://i.scdn.co/image/ab67616d00004851ed6f9c3010458116dcefbce7","width":64}],"name":"American Sound 1969","release_date":"2019-08-23","release_date_precision":"day","total_tracks":90,"type":"album","uri":"spotify:album:45su93rMPo8auQWHK3JaqF"},{"album_group":"album","album_type":"album","artists":[{"external_urls":{"spotify":"https://open.spotify.com/artist/43ZHCT0cAZBISjO8DG9PnE"},"href":"https://api.spotify.com/v1/artists/43ZHCT0cAZBISjO8DG9PnE","id":"43ZHCT0cAZBISjO8DG9PnE","name":"Elvis Presley","type":"artist","uri":"spotify:artist:43ZHCT0cAZBISjO8DG9PnE"}],"available_markets":["AD","AE","AL","AR","AT","AU","BA","BE","BG","BH","BO","BR","BY","CA","CH","CL","CO","CR","CY","CZ","DE","DK","DO","DZ","EC","EE","EG","ES","FI","FR","GB","GR","GT","HK","HN","HR","HU","ID","IE","IL","IN","IS","IT","JO","JP","KW","KZ","LB","LI","LT","LU","LV","MA","MC","MD","ME","MK","MT","MX","MY","NI","NL","NO","NZ","OM","PA","PE","PH","PL","PS","PT","PY","QA","RO","RS","RU","SA","SE","SG","SI","SK","SV","TH","TN","TR","TW","UA","US","UY","VN","XK","ZA"],"external_urls":{"spotify":"https://open.spotify.com/album/3s7da3LPVn5N1yobOcAen0"},"href":"https://api.spotify.com/v1/albums/3s7da3LPVn5N1yobOcAen0","id":"3s7da3LPVn5N1yobOcAen0","images":[{"height":640,"url":"https://i.scdn.co/image/ab67616d0000b273949faf48c3215c54ab28e8ad","width":640},{"height":300,"url":"https://i.scdn.co/image/ab67616d00001e02949faf48c3215c54ab28e8ad","width":300},{"height":64,"url":"https://i.scdn.co/image/ab67616d00004851949faf48c3215c54ab28e8ad","width":64}],"name":"Live 1969","release_date":"2019-08-09","release_date_precision":"day","total_tracks":216,"type":"album","uri":"spotify:album:3s7da3LPVn5N1yobOcAen0"},{"album_group":"album","album_type":"album","artists":[{"external_urls":{"spotify":"https://open.spotify.com/artist/43ZHCT0cAZBISjO8DG9PnE"},"href":"https://api.spotify.com/v1/artists/43ZHCT0cAZBISjO8DG9PnE","id":"43ZHCT0cAZBISjO8DG9PnE","name":"Elvis Presley","type":"artist","uri":"spotify:artist:43ZHCT0cAZBISjO8DG9PnE"}],"available_markets":["AD","AE","AL","AR","AT","AU","BA","BE","BG","BH","BO","BR","BY","CA","CH","CL","CO","CR","CY","CZ","DE","DK","DO","DZ","EC","EE","EG","ES","FI","FR","GB","GR","GT","HK","HN","HR","HU","ID","IE","IL","IN","IS","IT","JO","JP","KW","KZ","LB","LI","LT","LU","LV","MA","MC","MD","ME","MK","MT","MX","MY","NI","NL","NO","NZ","OM","PA","PE","PH","PL","PS","PT","PY","QA","RO","RS","RU","SA","SE","SG","SI","SK","SV","TH","TN","TR","TW","UA","US","UY","VN","XK","ZA"],"external_urls":{"spotify":"https://open.spotify.com/album/62CwfDeiM9t81FaFHebuUm"},"href":"https://api.spotify.com/v1/albums/62CwfDeiM9t81FaFHebuUm","id":"62CwfDeiM9t81FaFHebuUm","images":[{"height":640,"url":"https://i.scdn.co/image/ab67616d0000b273480be8802a3ec9bedddd8c1f","width":640},{"height":300,"url":"https://i.scdn.co/image/ab67616d00001e02480be8802a3ec9bedddd8c1f","width":300},{"height":64,"url":"https://i.scdn.co/image/ab67616d00004851480be8802a3ec9bedddd8c1f","width":64}],"name":"'68 Comeback Special (50th Anniversary Edition)","release_date":"2018-11-30","release_date_precision":"day","total_tracks":104,"type":"album","uri":"spotify:album:62CwfDeiM9t81FaFHebuUm"},{"album_group":"album","album_type":"album","artists":[{"external_urls":{"spotify":"https://open.spotify.com/artist/43ZHCT0cAZBISjO8DG9PnE"},"href":"https://api.spotify.com/v1/artists/43ZHCT0cAZBISjO8DG9PnE","id":"43ZHCT0cAZBISjO8DG9PnE","name":"Elvis Presley","type":"artist","uri":"spotify:artist:43ZHCT0cAZBISjO8DG9PnE"}],"available_markets":["AD","AE","AL","AR","AT","AU","BA","BE","BG","BH","BO","BR","BY","CA","CH","CL","CO","CR","CY","CZ","DE","DK","DO","DZ","EC","EE","EG","ES","FI","FR","GB","GR","GT","HK","HN","HR","HU","ID","IE","IL","IN","IS","IT","JO","JP","KW","KZ","LB","LI","LT","LU","LV","MA","MC","MD","ME","MK","MT","MX","MY","NI","NL","NO","NZ","OM","PA","PE","PH","PL","PS","PT","PY","QA","RO","RS","RU","SA","SE","SG","SI","SK","SV","TH","TN","TR","TW","UA","US","UY","VN","XK","ZA"],"external_urls":{"spotify":"https://open.spotify.com/album/0h3XtEi1s2gWTeSWKxFn4D"},"href":"https://api.spotify.com/v1/albums/0h3XtEi1s2gWTeSWKxFn4D","id":"0h3XtEi1s2gWTeSWKxFn4D","images":[{"height":640,"url":"https://i.scdn.co/image/ab67616d0000b2736c1a6afcd3249726d636824d","width":640},{"height":300,"url":"https://i.scdn.co/image/ab67616d00001e026c1a6afcd3249726d636824d","width":300},{"height":64,"url":"https://i.scdn.co/image/ab67616d000048516c1a6afcd3249726d636824d","width":64}],"name":"Where No One Stands Alone","release_date":"2018-08-10","release_date_precision":"day","total_tracks":14,"type":"album","uri":"spotify:album:0h3XtEi1s2gWTeSWKxFn4D"},{"album_group":"album","album_type":"album","artists":[{"external_urls":{"spotify":"https://open.spotify.com/artist/43ZHCT0cAZBISjO8DG9PnE"},"href":"https://api.spotify.com/v1/artists/43ZHCT0cAZBISjO8DG9PnE","id":"43ZHCT0cAZBISjO8DG9PnE","name":"Elvis Presley","type":"artist","uri":"spotify:artist:43ZHCT0cAZBISjO8DG9PnE"},{"external_urls":{"spotify":"https://open.spotify.com/artist/0MvSBMGRQJY3mRwIbJsqF1"},"href":"https://api.spotify.com/v1/artists/0MvSBMGRQJY3mRwIbJsqF1","id":"0MvSBMGRQJY3mRwIbJsqF1","name":"Royal Philharmonic Orchestra","type":"artist","uri":"spotify:artist:0MvSBMGRQJY3mRwIbJsqF1"}],"available_markets":["AD","AE","AL","AR","AT","AU","BA","BE","BG","BH","BO","BR","BY","CA","CH","CL","CO","CR","CY","CZ","DE","DK","DO","DZ","EC","EE","EG","ES","FI","FR","GB","GR","GT","HK","HN","HR","HU","ID","IE","IL","IN","IS","IT","JO","JP","KW","KZ","LB","LI","LT","LU","LV","MA","MC","MD","ME","MK","MT","MX","MY","NI","NL","NO","NZ","OM","PA","PE","PH","PL","PS","PT","PY","QA","RO","RS","RU","SA","SE","SG","SI","SK","SV","TH","TN","TR","TW","UA","US","UY","VN","XK","ZA"],"external_urls":{"spotify":"https://open.spotify.com/album/11FCLUM5m9GiuxjGEoTVF5"},"href":"https://api.spotify.com/v1/albums/11FCLUM5m9GiuxjGEoTVF5","id":"11FCLUM5m9GiuxjGEoTVF5","images":[{"height":640,"url":"https://i.scdn.co/image/ab67616d0000b2737f4bc5b1bd50ee702887bf2b","width":640},{"height":300,"url":"https://i.scdn.co/image/ab67616d00001e027f4bc5b1bd50ee702887bf2b","width":300},{"height":64,"url":"https://i.scdn.co/image/ab67616d000048517f4bc5b1bd50ee702887bf2b","width":64}],"name":"Christmas with Elvis and the Royal Philharmonic Orchestra (Deluxe)","release_date":"2017-11-24","release_date_precision":"day","total_tracks":17,"type":"album","uri":"spotify:album:11FCLUM5m9GiuxjGEoTVF5"},{"album_group":"album","album_type":"album","artists":[{"external_urls":{"spotify":"https://open.spotify.com/artist/43ZHCT0cAZBISjO8DG9PnE"},"href":"https://api.spotify.com/v1/artists/43ZHCT0cAZBISjO8DG9PnE","id":"43ZHCT0cAZBISjO8DG9PnE","name":"Elvis Presley","type":"artist","uri":"spotify:artist:43ZHCT0cAZBISjO8DG9PnE"},{"external_urls":{"spotify":"https://open.spotify.com/artist/0MvSBMGRQJY3mRwIbJsqF1"},"href":"https://api.spotify.com/v1/artists/0MvSBMGRQJY3mRwIbJsqF1","id":"0MvSBMGRQJY3mRwIbJsqF1","name":"Royal Philharmonic Orchestra","type":"artist","uri":"spotify:artist:0MvSBMGRQJY3mRwIbJsqF1"}],"available_markets":["AT","CH","DE","LI"],"external_urls":{"spotify":"https://open.spotify.com/album/44QNCqHYysoIey09uy9dDQ"},"href":"https://api.spotify.com/v1/albums/44QNCqHYysoIey09uy9dDQ","id":"44QNCqHYysoIey09uy9dDQ","images":[{"height":640,"url":"https://i.scdn.co/image/ab67616d0000b27319838ca310488186d23ac973","width":640},{"height":300,"url":"https://i.scdn.co/image/ab67616d00001e0219838ca310488186d23ac973","width":300},{"height":64,"url":"https://i.scdn.co/image/ab67616d0000485119838ca310488186d23ac973","width":64}],"name":"The Wonder of You & Christmas with Elvis and the Royal Philharmonic Orchestra","release_date":"2017-11-24","release_date_precision":"day","total_tracks":28,"type":"album","uri":"spotify:album:44QNCqHYysoIey09uy9dDQ"},{"album_group":"album","album_type":"album","artists":[{"external_urls":{"spotify":"https://open.spotify.com/artist/43ZHCT0cAZBISjO8DG9PnE"},"href":"https://api.spotify.com/v1/artists/43ZHCT0cAZBISjO8DG9PnE","id":"43ZHCT0cAZBISjO8DG9PnE","name":"Elvis Presley","type":"artist","uri":"spotify:artist:43ZHCT0cAZBISjO8DG9PnE"}],"available_markets":["ES"],"external_urls":{"spotify":"https://open.spotify.com/album/3PvJAMVTkr7nociDhr1wqt"},"href":"https://api.spotify.com/v1/albums/3PvJAMVTkr7nociDhr1wqt","id":"3PvJAMVTkr7nociDhr1wqt","images":[{"height":640,"url":"https://i.scdn.co/image/ab67616d0000b2735f9e94db7b5cd5433e0db2e7","width":640},{"height":300,"url":"https://i.scdn.co/image/ab67616d00001e025f9e94db7b5cd5433e0db2e7","width":300},{"height":64,"url":"https://i.scdn.co/image/ab67616d000048515f9e94db7b5cd5433e0db2e7","width":64}],"name":"Elvis: El Disco de Oro","release_date":"2017-10-13","release_date_precision":"day","total_tracks":31,"type":"album","uri":"spotify:album:3PvJAMVTkr7nociDhr1wqt"},{"album_group":"album","album_type":"album","artists":[{"external_urls":{"spotify":"https://open.spotify.com/artist/43ZHCT0cAZBISjO8DG9PnE"},"href":"https://api.spotify.com/v1/artists/43ZHCT0cAZBISjO8DG9PnE","id":"43ZHCT0cAZBISjO8DG9PnE","name":"Elvis Presley","type":"artist","uri":"spotify:artist:43ZHCT0cAZBISjO8DG9PnE"}],"available_markets":["AD","AE","BE","BH","CH","DZ","EG","FR","JO","KW","LB","LI","LU","MA","MC","NL","OM","PS","QA","SA","TN"],"external_urls":{"spotify":"https://open.spotify.com/album/46qrICPWlwqpIPirMfAd7K"},"href":"https://api.spotify.com/v1/albums/46qrICPWlwqpIPirMfAd7K","id":"46qrICPWlwqpIPirMfAd7K","images":[{"height":640,"url":"https://i.scdn.co/image/ab67616d0000b273c9349ca8d7bab313a5cda9cd","width":640},{"height":300,"url":"https://i.scdn.co/image/ab67616d00001e02c9349ca8d7bab313a5cda9cd","width":300},{"height":64,"url":"https://i.scdn.co/image/ab67616d00004851c9349ca8d7bab313a5cda9cd","width":64}],"name":"Elvis symphonique","release_date":"2017-08-04","release_date_precision":"day","total_tracks":34,"type":"album","uri":"spotify:album:46qrICPWlwqpIPirMfAd7K"},{"album_group":"album","album_type":"album","artists":[{"external_urls":{"spotify":"https://open.spotify.com/artist/43ZHCT0cAZBISjO8DG9PnE"},"href":"https://api.spotify.com/v1/artists/43ZHCT0cAZBISjO8DG9PnE","id":"43ZHCT0cAZBISjO8DG9PnE","name":"Elvis Presley","type":"artist","uri":"spotify:artist:43ZHCT0cAZBISjO8DG9PnE"}],"available_markets":["AD","AE","AL","AR","AT","AU","BA","BE","BG","BH","BO","BR","BY","CA","CH","CL","CO","CR","CY","CZ","DE","DK","DO","DZ","EC","EE","EG","ES","FI","FR","GB","GR","GT","HK","HN","HR","HU","ID","IE","IL","IN","IS","IT","JO","JP","KW","KZ","LB","LI","LT","LU","LV","MA","MC","MD","ME","MK","MT","MX","MY","NI","NL","NO","NZ","OM","PA","PE","PH","PL","PS","PT","PY","QA","RO","RS","RU","SA","SE","SG","SI","SK","SV","TH","TN","TR","TW","UA","US","UY","VN","XK","ZA"],"external_urls":{"spotify":"https://open.spotify.com/album/1obc6uvzMsDUd6Q76MP1kI"},"href":"https://api.spotify.com/v1/albums/1obc6uvzMsDUd6Q76MP1kI","id":"1obc6uvzMsDUd6Q76MP1kI","images":[{"height":640,"url":"https://i.scdn.co/image/ab67616d0000b273fcceeb0c255a838e6870f7f3","width":640},{"height":300,"url":"https://i.scdn.co/image/ab67616d00001e02fcceeb0c255a838e6870f7f3","width":300},{"height":64,"url":"https://i.scdn.co/image/ab67616d00004851fcceeb0c255a838e6870f7f3","width":64}],"name":"A Boy From Tupelo: The Complete 1953-1955 Recordings","release_date":"2017-07-28","release_date_precision":"day","total_tracks":85,"type":"album","uri":"spotify:album:1obc6uvzMsDUd6Q76MP1kI"},{"album_group":"album","album_type":"album","artists":[{"external_urls":{"spotify":"https://open.spotify.com/artist/43ZHCT0cAZBISjO8DG9PnE"},"href":"https://api.spotify.com/v1/artists/43ZHCT0cAZBISjO8DG9PnE","id":"43ZHCT0cAZBISjO8DG9PnE","name":"Elvis Presley","type":"artist","uri":"spotify:artist:43ZHCT0cAZBISjO8DG9PnE"},{"external_urls":{"spotify":"https://open.spotify.com/artist/0MvSBMGRQJY3mRwIbJsqF1"},"href":"https://api.spotify.com/v1/artists/0MvSBMGRQJY3mRwIbJsqF1","id":"0MvSBMGRQJY3mRwIbJsqF1","name":"Royal Philharmonic Orchestra","type":"artist","uri":"spotify:artist:0MvSBMGRQJY3mRwIbJsqF1"}],"available_markets":["AD","AE","AL","AR","AT","AU","BA","BE","BG","BH","BO","BR","BY","CH","CL","CO","CR","CY","CZ","DE","DK","DO","DZ","EC","EE","EG","ES","FI","FR","GB","GR","GT","HK","HN","HR","HU","ID","IE","IL","IN","IS","IT","JO","JP","KW","KZ","LB","LI","LT","LU","LV","MA","MC","MD","ME","MK","MT","MX","MY","NI","NL","NO","NZ","OM","PA","PE","PH","PL","PS","PT","PY","QA","RO","RS","RU","SA","SE","SG","SI","SK","SV","TH","TN","TR","TW","UA","US","UY","VN","XK","ZA"],"external_urls":{"spotify":"https://open.spotify.com/album/6oWz2hJ89n9mKarg3SO9ou"},"href":"https://api.spotify.com/v1/albums/6oWz2hJ89n9mKarg3SO9ou","id":"6oWz2hJ89n9mKarg3SO9ou","images":[{"height":640,"url":"https://i.scdn.co/image/ab67616d0000b273ee18f491fc7ac61b1dc02dcf","width":640},{"height":300,"url":"https://i.scdn.co/image/ab67616d00001e02ee18f491fc7ac61b1dc02dcf","width":300},{"height":64,"url":"https://i.scdn.co/image/ab67616d00004851ee18f491fc7ac61b1dc02dcf","width":64}],"name":"The Wonder of You: Elvis Presley with the Royal Philharmonic Orchestra","release_date":"2016-10-21","release_date_precision":"day","total_tracks":15,"type":"album","uri":"spotify:album:6oWz2hJ89n9mKarg3SO9ou"},{"album_group":"album","album_type":"album","artists":[{"external_urls":{"spotify":"https://open.spotify.com/artist/43ZHCT0cAZBISjO8DG9PnE"},"href":"https://api.spotify.com/v1/artists/43ZHCT0cAZBISjO8DG9PnE","id":"43ZHCT0cAZBISjO8DG9PnE","name":"Elvis Presley","type":"artist","uri":"spotify:artist:43ZHCT0cAZBISjO8DG9PnE"},{"external_urls":{"spotify":"https://open.spotify.com/artist/0MvSBMGRQJY3mRwIbJsqF1"},"href":"https://api.spotify.com/v1/artists/0MvSBMGRQJY3mRwIbJsqF1","id":"0MvSBMGRQJY3mRwIbJsqF1","name":"Royal Philharmonic Orchestra","type":"artist","uri":"spotify:artist:0MvSBMGRQJY3mRwIbJsqF1"}],"available_markets":["CA"],"external_urls":{"spotify":"https://open.spotify.com/album/2kTL2bkqCBKBTLzXfZPGF7"},"href":"https://api.spotify.com/v1/albums/2kTL2bkqCBKBTLzXfZPGF7","id":"2kTL2bkqCBKBTLzXfZPGF7","images":[{"height":640,"url":"https://i.scdn.co/image/ab67616d0000b2731765f47e13f33e559a36a1e5","width":640},{"height":300,"url":"https://i.scdn.co/image/ab67616d00001e021765f47e13f33e559a36a1e5","width":300},{"height":64,"url":"https://i.scdn.co/image/ab67616d000048511765f47e13f33e559a36a1e5","width":64}],"name":"The Wonder of You: Elvis Presley with the Royal Philharmonic Orchestra","release_date":"2016-10-21","release_date_precision":"day","total_tracks":15,"type":"album","uri":"spotify:album:2kTL2bkqCBKBTLzXfZPGF7"},{"album_group":"album","album_type":"album","artists":[{"external_urls":{"spotify":"https://open.spotify.com/artist/43ZHCT0cAZBISjO8DG9PnE"},"href":"https://api.spotify.com/v1/artists/43ZHCT0cAZBISjO8DG9PnE","id":"43ZHCT0cAZBISjO8DG9PnE","name":"Elvis Presley","type":"artist","uri":"spotify:artist:43ZHCT0cAZBISjO8DG9PnE"}],"available_markets":["CA"],"external_urls":{"spotify":"https://open.spotify.com/album/19yJZs4lfwZyHKXvd81PJB"},"href":"https://api.spotify.com/v1/albums/19yJZs4lfwZyHKXvd81PJB","id":"19yJZs4lfwZyHKXvd81PJB","images":[{"height":640,"url":"https://i.scdn.co/image/ab67616d0000b273590217421b94ec5c88d6272c","width":640},{"height":300,"url":"https://i.scdn.co/image/ab67616d00001e02590217421b94ec5c88d6272c","width":300},{"height":64,"url":"https://i.scdn.co/image/ab67616d00004851590217421b94ec5c88d6272c","width":64}],"name":"If I Can Dream: Elvis Presley with the Royal Philharmonic Orchestra","release_date":"2016-10-21","release_date_precision":"day","total_tracks":14,"type":"album","uri":"spotify:album:19yJZs4lfwZyHKXvd81PJB"},{"album_group":"album","album_type":"album","artists":[{"external_urls":{"spotify":"https://open.spotify.com/artist/43ZHCT0cAZBISjO8DG9PnE"},"href":"https://api.spotify.com/v1/artists/43ZHCT0cAZBISjO8DG9PnE","id":"43ZHCT0cAZBISjO8DG9PnE","name":"Elvis Presley","type":"artist","uri":"spotify:artist:43ZHCT0cAZBISjO8DG9PnE"}],"available_markets":["AD","AE","AL","AR","AT","AU","BA","BE","BG","BH","BO","BR","BY","CA","CH","CL","CO","CR","CY","CZ","DE","DK","DO","DZ","EC","EE","EG","ES","FI","FR","GB","GR","GT","HK","HN","HR","HU","ID","IE","IL","IN","IS","IT","JO","JP","KW","KZ","LB","LI","LT","LU","LV","MA","MC","MD","ME","MK","MT","MX","MY","NI","NL","NO","NZ","OM","PA","PE","PH","PL","PS","PT","PY","QA","RO","RS","RU","SA","SE","SG","SI","SK","SV","TH","TN","TR","TW","UA","US","UY","VN","XK","ZA"],"external_urls":{"spotify":"https://open.spotify.com/album/0aDuEoOhb33KsJjfkaqaCr"},"href":"https://api.spotify.com/v1/albums/0aDuEoOhb33KsJjfkaqaCr","id":"0aDuEoOhb33KsJjfkaqaCr","images":[{"height":640,"url":"https://i.scdn.co/image/ab67616d0000b273a67b3636c1a067b93c453a09","width":640},{"height":300,"url":"https://i.scdn.co/image/ab67616d00001e02a67b3636c1a067b93c453a09","width":300},{"height":64,"url":"https://i.scdn.co/image/ab67616d00004851a67b3636c1a067b93c453a09","width":64}],"name":"Way Down in the Jungle Room","release_date":"2016-08-05","release_date_precision":"day","total_tracks":33,"type":"album","uri":"spotify:album:0aDuEoOhb33KsJjfkaqaCr"},{"album_group":"album","album_type":"album","artists":[{"external_urls":{"spotify":"https://open.spotify.com/artist/43ZHCT0cAZBISjO8DG9PnE"},"href":"https://api.spotify.com/v1/artists/43ZHCT0cAZBISjO8DG9PnE","id":"43ZHCT0cAZBISjO8DG9PnE","name":"Elvis Presley","type":"artist","uri":"spotify:artist:43ZHCT0cAZBISjO8DG9PnE"},{"external_urls":{"spotify":"https://open.spotify.com/artist/0MvSBMGRQJY3mRwIbJsqF1"},"href":"https://api.spotify.com/v1/artists/0MvSBMGRQJY3mRwIbJsqF1","id":"0MvSBMGRQJY3mRwIbJsqF1","name":"Royal Philharmonic Orchestra","type":"artist","uri":"spotify:artist:0MvSBMGRQJY3mRwIbJsqF1"}],"available_markets":["AD","AE","AL","AR","AT","AU","BA","BE","BG","BH","BO","BR","BY","CA","CH","CL","CO","CR","CY","CZ","DE","DK","DO","DZ","EC","EE","EG","ES","FI","FR","GB","GR","GT","HK","HN","HR","HU","ID","IE","IL","IN","IS","IT","JO","JP","KW","KZ","LB","LI","LT","LU","LV","MA","MC","MD","ME","MK","MT","MX","MY","NI","NL","NO","NZ","OM","PA","PE","PH","PL","PS","PT","PY","QA","RO","RS","RU","SA","SE","SG","SI","SK","SV","TH","TN","TR","TW","UA","US","UY","VN","XK","ZA"],"external_urls":{"spotify":"https://open.spotify.com/album/3BYCjGZjrTkilIY7U25fNt"},"href":"https://api.spotify.com/v1/albums/3BYCjGZjrTkilIY7U25fNt","id":"3BYCjGZjrTkilIY7U25fNt","images":[{"height":640,"url":"https://i.scdn.co/image/ab67616d0000b2737adaca103b3a58a478bac9f4","width":640},{"height":300,"url":"https://i.scdn.co/image/ab67616d00001e027adaca103b3a58a478bac9f4","width":300},{"height":64,"url":"https://i.scdn.co/image/ab67616d000048517adaca103b3a58a478bac9f4","width":64}],"name":"If I Can Dream: Elvis Presley with the Royal Philharmonic Orchestra","release_date":"2015-10-30","release_date_precision":"day","total_tracks":14,"type":"album","uri":"spotify:album:3BYCjGZjrTkilIY7U25fNt"},{"album_group":"album","album_type":"album","artists":[{"external_urls":{"spotify":"https://open.spotify.com/artist/43ZHCT0cAZBISjO8DG9PnE"},"href":"https://api.spotify.com/v1/artists/43ZHCT0cAZBISjO8DG9PnE","id":"43ZHCT0cAZBISjO8DG9PnE","name":"Elvis Presley","type":"artist","uri":"spotify:artist:43ZHCT0cAZBISjO8DG9PnE"}],"available_markets":["JP"],"external_urls":{"spotify":"https://open.spotify.com/album/72JUDHA3dSkfD0Wzz1f4eu"},"href":"https://api.spotify.com/v1/albums/72JUDHA3dSkfD0Wzz1f4eu","id":"72JUDHA3dSkfD0Wzz1f4eu","images":[{"height":640,"url":"https://i.scdn.co/image/ab67616d0000b273a6618240de1bb9059d407a92","width":640},{"height":300,"url":"https://i.scdn.co/image/ab67616d00001e02a6618240de1bb9059d407a92","width":300},{"height":64,"url":"https://i.scdn.co/image/ab67616d00004851a6618240de1bb9059d407a92","width":64}],"name":"Eiichi Ohtaki's Juke Box - Elvis Presley Edition","release_date":"2015-01-28","release_date_precision":"day","total_tracks":20,"type":"album","uri":"spotify:album:72JUDHA3dSkfD0Wzz1f4eu"}],"limit":20,"next":"https://api.spotify.com/v1/artists/43ZHCT0cAZBISjO8DG9PnE/albums?offset=20&limit=20&include_groups=album,single,compilation,appears_on","offset":0,"previous":null,"total":655}